<?xml version="1.0" encoding="UTF-8" standalone="no"?>
<!-- Created with Inkscape (http://www.inkscape.org/) -->

<svg
   xmlns:dc="http://purl.org/dc/elements/1.1/"
   xmlns:cc="http://creativecommons.org/ns#"
   xmlns:rdf="http://www.w3.org/1999/02/22-rdf-syntax-ns#"
   xmlns:svg="http://www.w3.org/2000/svg"
   xmlns="http://www.w3.org/2000/svg"
   xmlns:sodipodi="http://sodipodi.sourceforge.net/DTD/sodipodi-0.dtd"
   xmlns:inkscape="http://www.inkscape.org/namespaces/inkscape"
   width="721.55731mm"
   height="335.28055mm"
   viewBox="0 0 721.55731 335.28055"
   version="1.1"
   id="svg8"
   inkscape:version="0.92.5 (2060ec1f9f, 2020-04-08)"
   sodipodi:docname="spiro.svg">
  <defs
     id="defs2">
    <inkscape:path-effect
       effect="bspline"
       id="path-effect821"
       is_visible="true"
       weight="33.333333"
       steps="2"
       helper_size="0"
       apply_no_weight="true"
       apply_with_weight="true"
       only_selected="false" />
    <inkscape:path-effect
       effect="spiro"
       id="path-effect817"
       is_visible="true" />
  </defs>
  <sodipodi:namedview
     id="base"
     pagecolor="#ffffff"
     bordercolor="#666666"
     borderopacity="1.0"
     inkscape:pageopacity="0.0"
     inkscape:pageshadow="2"
     inkscape:zoom="0.24748737"
     inkscape:cx="2367.0097"
     inkscape:cy="1008.8168"
     inkscape:document-units="mm"
     inkscape:current-layer="layer1"
     showgrid="false"
     fit-margin-top="0"
     fit-margin-left="0"
     fit-margin-right="0"
     fit-margin-bottom="0"
     inkscape:window-width="1920"
     inkscape:window-height="1061"
     inkscape:window-x="0"
     inkscape:window-y="0"
     inkscape:window-maximized="1" />
  <metadata
     id="metadata5">
    <rdf:RDF>
      <cc:Work
         rdf:about="">
        <dc:format>image/svg+xml</dc:format>
        <dc:type
           rdf:resource="http://purl.org/dc/dcmitype/StillImage" />
        <dc:title></dc:title>
      </cc:Work>
    </rdf:RDF>
  </metadata>
  <g
     inkscape:label="Layer 1"
     inkscape:groupmode="layer"
     id="layer1"
     transform="translate(844.42134,425.37889)">
    <path
       style="fill:#000000;fill-opacity:1;fill-rule:evenodd;stroke:#000000;stroke-width:0.26458332px;stroke-linecap:butt;stroke-linejoin:miter;stroke-opacity:1"
       d="m -316.74405,-29.571429 c -15.48766,-19.93043 -37.5462,-34.665702 -61.88797,-41.341636 -24.34177,-6.675934 -50.83119,-5.255346 -74.31936,3.985635 -23.48817,9.240982 -43.84426,26.250886 -57.11154,47.723401 -13.26729,21.4725149 -19.37188,47.288041 -17.12717,72.428668 2.2447,25.140627 12.82618,49.466321 29.68767,68.248771 16.86148,18.78244 39.90905,31.91701 64.66281,36.85067 24.75376,4.93366 51.07585,1.63893 73.84988,-9.24378 22.77403,-10.8827 41.87316,-29.29277 53.58498,-51.65173 0,0 0,0 0,0 0,0 0,0 0,0 0,0 0,0 0,0 0,0 0,0 0,0 0,0 0,0 0,0 0,0 0,0 0,0 0,0 0,0 0,0 0,0 0,0 0,0 -0.001,-4.69e-4 5e-5,0.0025 5.8e-4,0.0012 5.4e-4,-0.0013 -0.003,-3.9e-4 -10e-4,4.54e-4 10e-4,8.43e-4 10e-4,-0.0024 8e-5,-0.0017 -0.001,6.67e-4 10e-4,0.0025 0.002,0.0011 2.1e-4,-0.0014 -0.003,-7e-4 -0.002,4.55e-4 7.3e-4,0.0012 0.003,-9.87e-4 10e-4,-0.0016 -10e-4,-6.39e-4 -0.002,0.002 -7.1e-4,0.0022 0.001,2.31e-4 0.002,-0.0024 2.3e-4,-0.0025 -0.0692,-0.07827 -0.21882,0.04845 -0.15647,0.132299 0.0623,0.08385 0.22517,-0.0092 0.18897,-0.107237 -0.0362,-0.09802 -0.21342,-0.07395 -0.22725,0.02962 -0.0138,0.103568 0.13934,0.177559 0.21575,0.106288 0.0764,-0.07128 0.0233,-0.223721 -0.0802,-0.238032 -0.10349,-0.01431 -0.19623,0.107386 -0.16098,0.20573 0.0353,0.09834 0.17503,0.136674 0.25976,0.07555 0.0847,-0.06112 0.0964,-0.197958 0.0287,-0.277541 -0.0567,-0.104356 -0.19775,-0.149563 -0.30819,-0.105893 -0.11044,0.04367 -0.18157,0.165331 -0.17509,0.283911 0.006,0.118581 0.0849,0.228002 0.19086,0.281594 0.10598,0.05359 0.23524,0.0535 0.34558,0.0096 0.11033,-0.04393 0.20183,-0.129038 0.26347,-0.230549 0.0616,-0.101511 0.0946,-0.218729 0.10651,-0.336889 0.0238,-0.23632 -0.0341,-0.472078 -0.0784,-0.705426 -3e-5,-1.4e-5 -5e-5,-3.1e-5 -6e-5,-5.4e-5 -1e-5,-1.2e-5 -1e-5,-2.5e-5 -1e-5,-3.9e-5 0,-1.3e-5 1e-5,-2.6e-5 2e-5,-3.5e-5 1e-5,-9e-6 2e-5,-1.3e-5 3e-5,-10e-6 2e-5,2e-6 3e-5,1.3e-5 3e-5,2.6e-5 0,1.3e-5 0,2.8e-5 -2e-5,3.3e-5 -1e-5,5e-6 -3e-5,-10e-7 -3e-5,-1.3e-5 2e-5,-1.5e-5 6e-5,-7e-6 7e-5,1.7e-5 10e-6,2.4e-5 -1e-5,5.7e-5 -4e-5,5.8e-5 -2e-5,10e-7 -5e-5,-3.3e-5 -3e-5,-5.6e-5 10e-6,-2.2e-5 6e-5,-1.6e-5 6e-5,1e-5 1e-5,2.6e-5 -3e-5,4.8e-5 -5e-5,2.9e-5 -2e-5,-1.8e-5 10e-6,-5.8e-5 3e-5,-4.7e-5 2e-5,1.1e-5 1e-5,5.7e-5 -2e-5,5.1e-5 -2e-5,-6e-6 -10e-6,-5.6e-5 2e-5,-4.9e-5 0.0206,-0.01224 0.041,0.03111 0.0181,0.03833 -0.0229,0.0072 -0.0282,-0.0421 -0.004,-0.03911 0.0238,0.003 0.003,0.0496 -0.0147,0.03313 -0.0174,-0.01647 0.0307,-0.03754 0.0302,-0.01355 -0.002,0.02617 -0.0512,-0.0062 -0.0276,-0.01779 0.0236,-0.01156 0.0148,0.04754 -0.004,0.0291 -0.0187,-0.01844 0.0415,-0.0237 0.0258,-0.0027 -0.0157,0.02102 -0.0231,-0.0394 -0.003,-0.02232 51.72645,39.623095 -99.48321,41.059835 -47.64773,1.579485 51.83548,-39.48035 -0.88089,101.51901 -12.79068,37.45833 -11.90528,-64.048569 77.60832,54.96605 19.95141,24.64057 -57.65691,-30.32548 87.63174,-12.20253 24.02409,1.86942 C -980.93416,610.10462 166.10175,-711.1957 -197.14258,-1.4789339 -560.38685,708.23781 -35.321026,-904.4594 -172.48471,-119.0739 c -104.26784,782.7381 16.72497,-827.95632 -9.45601,-38.73818 -26.18127,789.2183 91.499872,-745.72069 -14.6069,36.77042 0,0 0,0 0,0 0,0 0,0 0,0 0,0 0,0 0,0 0,0 0,0 0,0 0,0 0,0 0,0 0,0 0,0 0,0 0,0 0,0 0,0 0,0 0,0 0,0 5e-5,-5e-5 -7e-5,-1.3e-4 -1e-4,-6e-5 -3e-5,6e-5 1.2e-4,1e-4 1.2e-4,2e-5 10e-6,-7e-5 -1.3e-4,-7e-5 -1.3e-4,0 0,7e-5 1.4e-4,7e-5 1.4e-4,0 0,-7e-5 -1.3e-4,-9e-5 -1.5e-4,-10e-6 -1e-5,7e-5 1.1e-4,1.1e-4 1.5e-4,5e-5 3e-5,-7e-5 -6e-5,-1.5e-4 -1.2e-4,-1.1e-4 -6e-5,4e-5 -3e-5,1.5e-4 5e-5,1.6e-4 0.0132,-3.5e-4 0.0203,-0.0202 0.0106,-0.0293 -0.01,-0.009 -0.0285,-0.002 -0.03,0.0116 -0.001,0.0132 0.0144,0.0245 0.0267,0.0195 0.0123,-0.005 0.0161,-0.0233 0.007,-0.0332 -0.009,-0.01 -0.0268,-0.009 -0.0348,0.002 -0.008,0.0106 -0.005,0.0275 0.006,0.035 0.0109,0.008 0.0273,0.005 0.0359,-0.005 0.009,-0.0101 0.009,-0.026 0.001,-0.0369 -0.007,-0.0107 -0.0217,-0.016 -0.0345,-0.0134 -0.0128,0.003 -0.0236,0.0125 -0.0282,0.0247 -0.005,0.0122 -0.003,0.0264 0.003,0.0378 0.006,0.0114 0.0173,0.02 0.0296,0.0244 0.0123,0.004 0.0258,0.005 0.0386,0.002 0.0127,-0.003 0.0247,-0.009 0.0351,-0.0166 0.021,-0.0155 0.036,-0.0377 0.0497,-0.0599 -7e-5,-1.9e-4 -1.5e-4,-3.8e-4 -1.8e-4,-5.9e-4 -1e-5,-1e-4 -1e-5,-2e-4 0,-3e-4 2e-5,-10e-5 6e-5,-2e-4 1.3e-4,-2.7e-4 6e-5,-8e-5 1.5e-4,-1.5e-4 2.5e-4,-1.7e-4 1e-4,-3e-5 2e-4,-2e-5 2.9e-4,3e-5 9e-5,5e-5 1.6e-4,1.5e-4 1.7e-4,2.5e-4 1e-5,1e-4 -4e-5,2.1e-4 -1.2e-4,2.6e-4 -8e-5,6e-5 -2e-4,6e-5 -2.8e-4,1e-5 -8e-5,-6e-5 -1.1e-4,-1.8e-4 -7e-5,-2.7e-4 4e-5,-9e-5 1.6e-4,-1.4e-4 2.5e-4,-1e-4 9e-5,4e-5 1.4e-4,1.6e-4 9e-5,2.5e-4 -5e-5,8e-5 -1.8e-4,1.1e-4 -2.6e-4,4e-5 -7e-5,-7e-5 -4e-5,-2.1e-4 5e-5,-2.5e-4 9e-5,-4e-5 2.1e-4,5e-5 1.9e-4,1.5e-4 -2e-5,1e-4 -1.6e-4,1.4e-4 -2.3e-4,7e-5 0.009,0.20298 -0.29124,0.33697 -0.43048,0.18899 -0.13923,-0.14797 0.0295,-0.44489 0.22609,-0.39358 0.1966,0.0513 0.1852,0.40531 -0.0155,0.43676 -0.20073,0.0314 -0.31002,-0.31865 -0.12418,-0.4008 0.18548,-0.0837 0.36597,0.25033 0.1909,0.35409 -0.17507,0.10375 -0.37328,-0.23415 -0.19431,-0.33102 0.17897,-0.0969 0.34192,0.2721 0.14795,0.33367 -0.19397,0.0616 -0.25648,-0.34809 -0.0531,-0.34173 37.78383,43.472846 -68.63847,99.413062 -81.6025,43.293189 -12.96404,-56.119869 109.59321,-46.280339 86.56494,6.513655 -23.02835,52.793934 -110.95311,-36.655774 -57.28001,-57.553214 53.6731,-20.89744 42.59652,106.249145 -5.99541,75.324568 -49.76014,-35.604709 76.09772,-91.217768 67.66941,-30.614712 -8.42832,60.603057 -110.5876,-34.048326 -50.55895,-45.894336 60.02845,-11.84559 -6.08109,112.202296 -28.66222,55.335561 -22.58112,-56.866731 108.69657,-4.151095 52.61329,20.311083 0.60363,-0.439215 1.36067,-0.659588 2.1064,-0.625426 0.74573,0.03416 1.47579,0.320475 2.05395,0.792717 0.57816,0.472241 1.00291,1.126633 1.21097,1.843566 0.20806,0.716932 0.20035,1.493222 -0.01,2.209558 -0.21011,0.716336 -0.62051,1.371074 -1.165,1.881784 -0.54448,0.510709 -1.2209,0.877262 -1.9429,1.067012 -1.44399,0.379499 -3.04191,0.02586 -4.2494,-0.852264 -1.20749,-0.878121 -2.02415,-2.248086 -2.31928,-3.711654 -0.29512,-1.463568 -0.0851,-3.009466 0.49817,-4.383849 0.58327,-1.374382 1.52854,-2.580503 2.65901,-3.555783 1.13047,-0.97528 2.44322,-1.725578 3.82016,-2.302779 2.75381,-1.154402 5.73687,-1.619706 8.66608,-2.199219 2.92921,-0.579513 5.89549,-1.307016 8.41812,-2.90465 1.26132,-0.798817 2.39722,-1.813445 3.24949,-3.039277 0.85227,-1.225832 1.41341,-2.668289 1.51206,-4.158021 0.0986,-1.489732 -0.28085,-3.023125 -1.14592,-4.23996 -0.86507,-1.216835 -2.22622,-2.092577 -3.70739,-2.280088 -0.001,-9.7e-4 -0.001,-0.0031 -2.7e-4,-0.0043 0.001,-0.0011 0.003,-10e-4 0.004,2.54e-4 0.001,0.0013 7.4e-4,0.0033 -5.5e-4,0.0043 -10e-4,9.71e-4 -0.003,6.67e-4 -0.004,-6.17e-4 -9.8e-4,-0.0013 -7.7e-4,-0.0033 4.5e-4,-0.0044 0.001,-0.0011 0.003,-0.001 0.004,2.8e-5 0.001,0.0011 0.001,0.003 6.3e-4,0.0044 -8.4e-4,0.0014 -0.003,0.002 -0.004,0.0015 -0.002,-5.1e-4 -0.003,-0.0021 -0.003,-0.0037 6e-5,-0.0016 0.001,-0.0031 0.003,-0.0036 0.002,-4.85e-4 0.003,6.7e-5 0.004,0.0013 0.001,0.0012 0.001,0.0031 6e-4,0.0046 -6.7e-4,0.0015 -0.002,0.0025 -0.004,0.0026 -0.002,1.23e-4 -0.003,-6.58e-4 -0.004,-0.002 -9.6e-4,-0.0013 -0.001,-0.0031 -6.9e-4,-0.0046 5.2e-4,-0.0015 0.002,-0.0028 0.003,-0.0033 0.001,6.22e-4 0.002,0.0017 0.002,0.0029 2.1e-4,0.0012 -1e-4,0.0024 -8e-4,0.0034 -7e-4,9.69e-4 -0.002,0.0016 -0.003,0.0019 -0.001,2.41e-4 -0.002,4.6e-5 -0.003,-5.12e-4 -0.001,-5.59e-4 -0.002,-0.0015 -0.002,-0.0025 -5.2e-4,-0.0011 -7e-4,-0.0023 -5.5e-4,-0.0035 1.5e-4,-0.0012 6.4e-4,-0.0023 0.001,-0.0033 7.3e-4,-9.48e-4 0.002,-0.0017 0.003,-0.0022 0.002,-10e-4 0.005,-10e-4 0.007,-2.57e-4 0.002,7.85e-4 0.004,0.0023 0.006,0.0042 0.003,0.0037 0.004,0.0086 0.005,0.01326 -20.38681,8.660747 -41.55649,17.34648 -57.01161,33.213728 -7.72756,7.933624 -13.83736,17.631174 -16.55463,28.367747 -2.71728,10.736573 -1.85684,22.5380814 3.39223,32.290254 2.62454,4.876086 6.31205,9.194513 10.80374,12.433206 4.49169,3.238692 9.78872,5.381881 15.28771,6.034188 5.49899,0.652307 11.18852,-0.204324 16.19179,-2.57745 5.00326,-2.373125 9.29321,-6.272023 12.00918,-11.09778 2.71596,-4.825757 3.8228,-10.5641228 2.95705,-16.033573 -0.86575,-5.4694503 -3.72484,-10.6247667 -7.99608,-14.149101 -4.27124,-3.524334 -9.93149,-5.357464 -15.44742,-4.868707 -5.51594,0.488756 -10.81027,3.328796 -14.16081,7.737684 10.36538,2.4337305 21.80193,0.1072508 30.23737,-6.389485 8.43544,-6.496735 13.62896,-17.088543 13.34453,-27.732006 -0.28443,-10.643463 -6.13566,-21.038875 -15.22089,-26.590701 -9.08524,-5.551825 -21.14574,-5.977093 -30.48271,-0.859952 -9.33697,5.117142 -15.49893,15.662095 -15.12904,26.302931 0.3699,10.640835 7.37921,20.827144 17.27668,24.751962 9.89748,3.924819 22.12428,1.219306 29.26797,-6.675754 7.14369,-7.895059 8.57215,-20.50049 3.17406,-29.677901 -5.42,-9.145057 -17.31177,-13.974975 -27.51137,-10.978885 -10.1996,2.996089 -17.62855,13.67617 -16.66537,24.262989 0.96318,10.586818 10.38252,19.81953 20.99982,20.350049 10.6173,0.53052 20.99948,-7.901182 22.4435,-18.433193 1.44401,-10.53202 -6.47189,-21.547542 -16.95231,-23.327874 -10.48041,-1.780332 -21.69144,6.197088 -23.23747,16.714617 -1.54604,10.517529 7.10159,21.475241 17.70662,22.211467 10.60502,0.736226 20.75191,-9.144192 20.09693,-19.754547 -1.94927,-6.002145 -2.26623,-12.525733 -0.90801,-18.688576 1.35822,-6.162844 4.38806,-11.948837 8.6798,-16.575536 4.29175,-4.6267 9.83417,-8.082014 15.87777,-9.89868 6.0436,-1.816665 12.57259,-1.989935 18.70404,-0.496376 6.13145,1.493558 11.84934,4.650041 16.38044,9.042596 4.5311,4.392555 7.86356,10.009702 9.54674,16.091831 1.68318,6.08213 1.71268,12.613347 0.0845,18.710431 -1.62818,6.097085 -4.90977,11.744103 -9.40101,16.177406"
       id="path815"
       inkscape:connector-curvature="0"
       inkscape:path-effect="#path-effect817"
       inkscape:original-d="m -316.74405,-29.571429 c 35.78202,25.9541007 -28.97791,89.706084 11.3393,126.999999 40.31718,37.29391 72.57168,-145.647088 108.85713,-218.47023 36.28545,-72.82315 -11.591,44.348935 -17.3869,66.523804 -5.7959,22.174867 13.10344,-17.639154 19.65476,-26.458333 6.55132,-8.819181 -14.11085,23.686244 -21.16666,35.529761 -7.05583,11.84352 39.30978,9.575133 58.96428,14.363096"
       sodipodi:nodetypes="csssscc"
       transform="matrix(0.40995276,0.79196054,-0.79196054,0.40995276,-390.20829,4.9984555)" />
  </g>
</svg>
